<svg xmlns="http://www.w3.org/2000/svg" width="27" height="15" viewBox="0 0 27 15">
    <path fill="#FFF" fill-rule="nonzero" stroke="#FFF" d="M26.208 1.51a.718.718 0 0 1-.206.504l-11.68 11.864a.718.718 0 0 1-.603.33.741.741 0 0 1-.584-.287L1.415 2.11a.718.718 0 0 1 1.02-1.01l11.27 11.36L24.98 1.005a.718.718 0 0 1 1.229.504z"/>
</svg>
