<svg xmlns="http://www.w3.org/2000/svg" width="13" height="22" viewBox="0 0 13 22">
    <path fill="#D9D9D9" fill-rule="nonzero" stroke="#D9D9D9" d="M1.589 21.498a.588.588 0 0 0 .413-.169l9.727-9.576a.589.589 0 0 0 .271-.495.608.608 0 0 0-.235-.478L2.08 1.17a.589.589 0 0 0-.83.836l9.315 9.242-9.39 9.243a.589.589 0 0 0 .414 1.007z"/>
</svg>
