<?xml version="1.0" encoding="UTF-8"?>
<svg width="258px" height="60px" viewBox="0 0 258 60" version="1.1" xmlns="http://www.w3.org/2000/svg" xmlns:xlink="http://www.w3.org/1999/xlink">
    <!-- Generator: Sketch 49 (51002) - http://www.bohemiancoding.com/sketch -->
    <title>Group 4</title>
    <desc>Created with Sketch.</desc>
    <defs></defs>
    <g id="Page-1" stroke="none" stroke-width="1" fill="none" fill-rule="evenodd">
        <g id="Group-4">
            <path d="M2,8.67913195 L128.458008,8.67913195 L136.56543,0 L145.139648,8.67913195 L255.953125,8.67913195 C257.057694,8.67913195 257.953125,9.57456245 257.953125,10.679132 L257.953125,57.25 C257.953125,58.3545695 257.057694,59.25 255.953125,59.25 L2,59.25 C0.8954305,59.25 1.3527075e-16,58.3545695 0,57.25 L7.63833441e-14,10.679132 C7.82101829e-14,9.57456245 0.8954305,8.67913195 2,8.67913195 Z" id="Rectangle-2" fill="#0154A0"></path>
            <path d="M25.2910001,39.616 C25.0830001,38.992 25.0030001,38.368 25.0030001,36.56 C25.0030001,34.752 25.0830001,34.128 25.2910001,33.504 C25.8350001,31.792 27.1310001,30.944 28.9070001,30.944 C30.5230001,30.944 31.7710001,31.744 32.3950001,33.136 C32.4270001,33.216 32.4110001,33.296 32.3310001,33.344 L31.3710001,33.808 C31.2750001,33.856 31.1790001,33.808 31.1470001,33.728 C30.7150001,32.88 30.0430001,32.272 28.9070001,32.272 C27.7230001,32.272 27.0030001,32.848 26.6510001,33.872 C26.5070001,34.32 26.4430001,34.848 26.4430001,36.56 C26.4430001,38.272 26.5070001,38.8 26.6510001,39.248 C27.0030001,40.272 27.7230001,40.848 28.9070001,40.848 C30.0430001,40.848 30.7150001,40.24 31.1470001,39.392 C31.1790001,39.312 31.2750001,39.264 31.3710001,39.312 L32.3310001,39.776 C32.4110001,39.824 32.4270001,39.904 32.3950001,39.984 C31.7710001,41.376 30.5230001,42.176 28.9070001,42.176 C27.1310001,42.176 25.8350001,41.328 25.2910001,39.616 Z M37.0020001,42.176 C35.5140001,42.176 34.3940001,41.408 33.9780001,40.112 C33.8020001,39.584 33.7220001,39.056 33.7220001,38.16 C33.7220001,37.28 33.8020001,36.752 33.9780001,36.224 C34.3940001,34.912 35.5140001,34.16 37.0020001,34.16 C38.4900001,34.16 39.6100001,34.912 40.0260001,36.224 C40.2020001,36.752 40.2820001,37.28 40.2820001,38.16 C40.2820001,39.056 40.2020001,39.584 40.0260001,40.112 C39.6100001,41.408 38.4900001,42.176 37.0020001,42.176 Z M37.0020001,40.928 C37.8500001,40.928 38.4740001,40.496 38.7300001,39.728 C38.8580001,39.312 38.9060001,38.896 38.9060001,38.16 C38.9060001,37.424 38.8580001,37.024 38.7300001,36.608 C38.4740001,35.84 37.8500001,35.408 37.0020001,35.408 C36.1540001,35.408 35.5300001,35.84 35.2740001,36.608 C35.1460001,37.024 35.0980001,37.424 35.0980001,38.16 C35.0980001,38.896 35.1460001,39.312 35.2740001,39.728 C35.5300001,40.496 36.1540001,40.928 37.0020001,40.928 Z M48.2170001,42 L47.1930001,42 C47.0970001,42 47.0330001,41.936 47.0330001,41.84 L47.0330001,37.36 C47.0330001,36.128 46.4730001,35.408 45.3210001,35.408 C44.2810001,35.408 43.5610001,36.144 43.5610001,37.28 L43.5610001,41.84 C43.5610001,41.936 43.4970001,42 43.4010001,42 L42.3770001,42 C42.2810001,42 42.2170001,41.936 42.2170001,41.84 L42.2170001,34.496 C42.2170001,34.4 42.2810001,34.336 42.3770001,34.336 L43.4010001,34.336 C43.4970001,34.336 43.5610001,34.4 43.5610001,34.496 L43.5610001,35.2 L43.5770001,35.2 C43.9450001,34.608 44.6810001,34.16 45.7210001,34.16 C47.3850001,34.16 48.3770001,35.296 48.3770001,37.04 L48.3770001,41.84 C48.3770001,41.936 48.3130001,42 48.2170001,42 Z M53.8630001,40.992 C53.7830001,40.928 53.7670001,40.832 53.8310001,40.752 L54.9190001,39.408 C54.9830001,39.328 55.0630001,39.312 55.1270001,39.376 C55.5910001,39.76 56.2790001,40.144 57.0470001,40.224 L57.0470001,37.488 C55.1750001,37.2 54.0390001,36.048 54.0390001,34.336 C54.0390001,32.544 55.2550001,31.2 57.0470001,30.976 L57.0470001,30.032 C57.0470001,29.936 57.1110001,29.872 57.2070001,29.872 L57.9430001,29.872 C58.0390001,29.872 58.1030001,29.936 58.1030001,30.032 L58.1030001,30.976 C59.1110001,31.056 59.9910001,31.408 60.6470001,31.84 C60.7270001,31.904 60.7430001,31.984 60.6790001,32.08 L59.7510001,33.424 C59.6870001,33.504 59.6070001,33.52 59.5270001,33.472 C59.0790001,33.2 58.5990001,32.992 58.1030001,32.912 L58.1030001,35.488 C60.1190001,35.808 61.1270001,36.944 61.1270001,38.672 C61.1270001,40.528 59.9750001,41.84 58.1030001,42.112 L58.1030001,43.088 C58.1030001,43.184 58.0390001,43.248 57.9430001,43.248 L57.2070001,43.248 C57.1110001,43.248 57.0470001,43.184 57.0470001,43.088 L57.0470001,42.16 C55.7670001,42.096 54.6790001,41.632 53.8630001,40.992 Z M57.0470001,35.28 L57.0470001,32.992 C56.5510001,33.184 56.2470001,33.616 56.2470001,34.16 C56.2470001,34.672 56.4390001,35.056 57.0470001,35.28 Z M58.1030001,40.112 C58.6310001,39.904 58.9190001,39.44 58.9190001,38.784 C58.9190001,38.32 58.7110001,37.936 58.1030001,37.712 L58.1030001,40.112 Z M65.5420001,41.84 L65.5420001,33.648 L65.5100001,33.648 L63.7820001,34.832 C63.6860001,34.896 63.6060001,34.864 63.6060001,34.736 L63.6060001,32.752 C63.6060001,32.656 63.6380001,32.592 63.7180001,32.528 L65.5420001,31.216 C65.6220001,31.152 65.7180001,31.12 65.8300001,31.12 L67.6220001,31.12 C67.7180001,31.12 67.7820001,31.184 67.7820001,31.28 L67.7820001,41.84 C67.7820001,41.936 67.7180001,42 67.6220001,42 L65.7020001,42 C65.6060001,42 65.5420001,41.936 65.5420001,41.84 Z M71.3010001,41.84 L71.3010001,39.92 C71.3010001,39.824 71.3650001,39.76 71.4610001,39.76 L73.3650001,39.76 C73.4610001,39.76 73.5250001,39.824 73.5250001,39.92 L73.5250001,41.84 C73.5250001,41.936 73.4610001,42 73.3650001,42 L71.4610001,42 C71.3650001,42 71.3010001,41.936 71.3010001,41.84 Z M75.4280001,39.952 C75.2680001,39.472 75.1880001,38.976 75.1880001,36.56 C75.1880001,34.144 75.2680001,33.648 75.4280001,33.168 C75.8760001,31.776 76.9960001,30.944 78.7080001,30.944 C80.4200001,30.944 81.5400001,31.776 81.9880001,33.168 C82.1480001,33.648 82.2280001,34.144 82.2280001,36.56 C82.2280001,38.976 82.1480001,39.472 81.9880001,39.952 C81.5400001,41.344 80.4200001,42.176 78.7080001,42.176 C76.9960001,42.176 75.8760001,41.344 75.4280001,39.952 Z M77.6040001,39.552 C77.7640001,40.048 78.1320001,40.288 78.7080001,40.288 C79.2680001,40.288 79.6520001,40.048 79.8120001,39.552 C79.9080001,39.264 79.9400001,38.944 79.9400001,36.56 C79.9400001,34.176 79.9080001,33.856 79.8120001,33.568 C79.6520001,33.072 79.2680001,32.832 78.7080001,32.832 C78.1320001,32.832 77.7640001,33.072 77.6040001,33.568 C77.5080001,33.856 77.4760001,34.176 77.4760001,36.56 C77.4760001,38.944 77.5080001,39.264 77.6040001,39.552 Z M84.0990001,39.952 C83.9390001,39.472 83.8590001,38.976 83.8590001,36.56 C83.8590001,34.144 83.9390001,33.648 84.0990001,33.168 C84.5470001,31.776 85.6670001,30.944 87.3790001,30.944 C89.0910001,30.944 90.2110001,31.776 90.6590001,33.168 C90.8190001,33.648 90.8990001,34.144 90.8990001,36.56 C90.8990001,38.976 90.8190001,39.472 90.6590001,39.952 C90.2110001,41.344 89.0910001,42.176 87.3790001,42.176 C85.6670001,42.176 84.5470001,41.344 84.0990001,39.952 Z M86.2750001,39.552 C86.4350001,40.048 86.8030001,40.288 87.3790001,40.288 C87.9390001,40.288 88.3230001,40.048 88.4830001,39.552 C88.5790001,39.264 88.6110001,38.944 88.6110001,36.56 C88.6110001,34.176 88.5790001,33.856 88.4830001,33.568 C88.3230001,33.072 87.9390001,32.832 87.3790001,32.832 C86.8030001,32.832 86.4350001,33.072 86.2750001,33.568 C86.1790001,33.856 86.1470001,34.176 86.1470001,36.56 C86.1470001,38.944 86.1790001,39.264 86.2750001,39.552 Z M92.7700001,39.952 C92.6100001,39.472 92.5300001,38.976 92.5300001,36.56 C92.5300001,34.144 92.6100001,33.648 92.7700001,33.168 C93.2180001,31.776 94.3380001,30.944 96.0500001,30.944 C97.7620001,30.944 98.8820001,31.776 99.3300001,33.168 C99.4900001,33.648 99.5700001,34.144 99.5700001,36.56 C99.5700001,38.976 99.4900001,39.472 99.3300001,39.952 C98.8820001,41.344 97.7620001,42.176 96.0500001,42.176 C94.3380001,42.176 93.2180001,41.344 92.7700001,39.952 Z M94.9460001,39.552 C95.1060001,40.048 95.4740001,40.288 96.0500001,40.288 C96.6100001,40.288 96.9940001,40.048 97.1540001,39.552 C97.2500001,39.264 97.2820001,38.944 97.2820001,36.56 C97.2820001,34.176 97.2500001,33.856 97.1540001,33.568 C96.9940001,33.072 96.6100001,32.832 96.0500001,32.832 C95.4740001,32.832 95.1060001,33.072 94.9460001,33.568 C94.8500001,33.856 94.8180001,34.176 94.8180001,36.56 C94.8180001,38.944 94.8500001,39.264 94.9460001,39.552 Z M108.016,42.176 C106.528,42.176 105.408,41.408 104.992,40.112 C104.816,39.584 104.736,39.056 104.736,38.16 C104.736,37.28 104.816,36.752 104.992,36.224 C105.408,34.912 106.528,34.16 108.016,34.16 C109.504,34.16 110.624,34.912 111.04,36.224 C111.216,36.752 111.296,37.28 111.296,38.16 C111.296,39.056 111.216,39.584 111.04,40.112 C110.624,41.408 109.504,42.176 108.016,42.176 Z M108.016,40.928 C108.864,40.928 109.488,40.496 109.744,39.728 C109.872,39.312 109.92,38.896 109.92,38.16 C109.92,37.424 109.872,37.024 109.744,36.608 C109.488,35.84 108.864,35.408 108.016,35.408 C107.168,35.408 106.544,35.84 106.288,36.608 C106.16,37.024 106.112,37.424 106.112,38.16 C106.112,38.896 106.16,39.312 106.288,39.728 C106.544,40.496 107.168,40.928 108.016,40.928 Z M114.415,42 L113.391,42 C113.295,42 113.231,41.936 113.231,41.84 L113.231,31.28 C113.231,31.184 113.295,31.12 113.391,31.12 L114.415,31.12 C114.511,31.12 114.575,31.184 114.575,31.28 L114.575,35.216 L114.591,35.216 C114.959,34.608 115.615,34.16 116.767,34.16 C118.095,34.16 119.023,34.784 119.407,36 C119.615,36.608 119.679,37.216 119.679,38.16 C119.679,39.12 119.615,39.728 119.407,40.336 C119.023,41.552 118.095,42.176 116.767,42.176 C115.615,42.176 114.959,41.712 114.591,41.104 L114.575,41.104 L114.575,41.84 C114.575,41.936 114.511,42 114.415,42 Z M116.447,40.928 C117.295,40.928 117.871,40.512 118.127,39.76 C118.255,39.36 118.303,38.864 118.303,38.16 C118.303,37.472 118.255,36.976 118.127,36.56 C117.871,35.808 117.295,35.408 116.447,35.408 C115.599,35.408 115.007,35.792 114.751,36.56 C114.623,36.944 114.575,37.392 114.575,38.16 C114.575,38.928 114.623,39.392 114.751,39.76 C115.007,40.528 115.599,40.928 116.447,40.928 Z M124.43,42.08 L123.838,42.08 C122.35,42.08 121.774,41.408 121.774,39.904 L121.774,35.52 C121.774,35.456 121.742,35.424 121.678,35.424 L121.038,35.424 C120.942,35.424 120.878,35.36 120.878,35.264 L120.878,34.496 C120.878,34.4 120.942,34.336 121.038,34.336 L121.678,34.336 C121.742,34.336 121.774,34.304 121.774,34.24 L121.774,32.08 C121.774,31.984 121.838,31.92 121.934,31.92 L122.958,31.92 C123.054,31.92 123.118,31.984 123.118,32.08 L123.118,34.24 C123.118,34.304 123.15,34.336 123.214,34.336 L124.43,34.336 C124.526,34.336 124.59,34.4 124.59,34.496 L124.59,35.264 C124.59,35.36 124.526,35.424 124.43,35.424 L123.214,35.424 C123.15,35.424 123.118,35.456 123.118,35.52 L123.118,39.856 C123.118,40.624 123.406,40.832 124.094,40.832 L124.43,40.832 C124.526,40.832 124.59,40.896 124.59,40.992 L124.59,41.92 C124.59,42.016 124.526,42.08 124.43,42.08 Z M127.661,32.608 L126.573,32.608 C126.477,32.608 126.413,32.544 126.413,32.448 L126.413,31.28 C126.413,31.184 126.477,31.12 126.573,31.12 L127.661,31.12 C127.757,31.12 127.821,31.184 127.821,31.28 L127.821,32.448 C127.821,32.544 127.757,32.608 127.661,32.608 Z M127.629,42 L126.605,42 C126.509,42 126.445,41.936 126.445,41.84 L126.445,34.496 C126.445,34.4 126.509,34.336 126.605,34.336 L127.629,34.336 C127.725,34.336 127.789,34.4 127.789,34.496 L127.789,41.84 C127.789,41.936 127.725,42 127.629,42 Z M133.052,42.176 C131.5,42.176 130.396,41.424 129.98,40.096 C129.82,39.6 129.724,39.04 129.724,38.16 C129.724,37.28 129.804,36.688 129.964,36.224 C130.396,34.896 131.516,34.16 132.972,34.16 C134.444,34.16 135.548,34.912 135.98,36.224 C136.14,36.72 136.22,37.248 136.22,38.416 C136.22,38.512 136.156,38.576 136.044,38.576 L131.196,38.576 C131.132,38.576 131.1,38.608 131.1,38.672 C131.1,39.088 131.148,39.344 131.228,39.6 C131.532,40.48 132.22,40.928 133.164,40.928 C134.076,40.928 134.716,40.56 135.132,40.08 C135.212,40 135.292,39.984 135.372,40.048 L136.028,40.64 C136.108,40.704 136.108,40.784 136.044,40.864 C135.436,41.632 134.396,42.176 133.052,42.176 Z M131.196,37.504 L134.748,37.504 C134.812,37.504 134.844,37.472 134.844,37.408 C134.844,37.056 134.812,36.784 134.732,36.544 C134.476,35.776 133.836,35.344 132.972,35.344 C132.108,35.344 131.468,35.776 131.212,36.544 C131.132,36.784 131.1,37.056 131.1,37.408 C131.1,37.472 131.132,37.504 131.196,37.504 Z M144.155,42 L143.131,42 C143.035,42 142.971,41.936 142.971,41.84 L142.971,37.36 C142.971,36.128 142.411,35.408 141.259,35.408 C140.219,35.408 139.499,36.144 139.499,37.28 L139.499,41.84 C139.499,41.936 139.435,42 139.339,42 L138.315,42 C138.219,42 138.155,41.936 138.155,41.84 L138.155,34.496 C138.155,34.4 138.219,34.336 138.315,34.336 L139.339,34.336 C139.435,34.336 139.499,34.4 139.499,34.496 L139.499,35.2 L139.515,35.2 C139.883,34.608 140.619,34.16 141.659,34.16 C143.323,34.16 144.315,35.296 144.315,37.04 L144.315,41.84 C144.315,41.936 144.251,42 144.155,42 Z M149.498,42.176 C147.946,42.176 146.842,41.424 146.426,40.096 C146.266,39.6 146.17,39.04 146.17,38.16 C146.17,37.28 146.25,36.688 146.41,36.224 C146.842,34.896 147.962,34.16 149.418,34.16 C150.89,34.16 151.994,34.912 152.426,36.224 C152.586,36.72 152.666,37.248 152.666,38.416 C152.666,38.512 152.602,38.576 152.49,38.576 L147.642,38.576 C147.578,38.576 147.546,38.608 147.546,38.672 C147.546,39.088 147.594,39.344 147.674,39.6 C147.978,40.48 148.666,40.928 149.61,40.928 C150.522,40.928 151.162,40.56 151.578,40.08 C151.658,40 151.738,39.984 151.818,40.048 L152.474,40.64 C152.554,40.704 152.554,40.784 152.49,40.864 C151.882,41.632 150.842,42.176 149.498,42.176 Z M147.642,37.504 L151.194,37.504 C151.258,37.504 151.29,37.472 151.29,37.408 C151.29,37.056 151.258,36.784 151.178,36.544 C150.922,35.776 150.282,35.344 149.418,35.344 C148.554,35.344 147.914,35.776 147.658,36.544 C147.578,36.784 147.546,37.056 147.546,37.408 C147.546,37.472 147.578,37.504 147.642,37.504 Z M157.241,42.176 C155.753,42.176 154.697,41.568 154.073,41.024 C154.009,40.96 154.009,40.864 154.073,40.8 L154.729,40.096 C154.793,40.032 154.889,40.032 154.953,40.096 C155.529,40.592 156.393,40.976 157.321,40.976 C158.441,40.976 159.001,40.496 159.001,39.808 C159.001,39.2 158.713,38.864 157.513,38.736 L156.697,38.656 C155.193,38.496 154.409,37.744 154.409,36.496 C154.409,35.04 155.449,34.16 157.257,34.16 C158.377,34.16 159.337,34.528 159.977,35.008 C160.057,35.056 160.057,35.152 160.009,35.232 L159.465,35.92 C159.401,36 159.321,36 159.241,35.952 C158.745,35.632 157.961,35.328 157.177,35.328 C156.217,35.328 155.721,35.76 155.721,36.384 C155.721,36.992 156.089,37.312 157.225,37.424 L158.025,37.504 C159.577,37.648 160.329,38.432 160.329,39.664 C160.329,41.168 159.241,42.176 157.241,42.176 Z M168.647,42.08 L168.055,42.08 C166.567,42.08 165.991,41.408 165.991,39.904 L165.991,35.52 C165.991,35.456 165.959,35.424 165.895,35.424 L165.255,35.424 C165.159,35.424 165.095,35.36 165.095,35.264 L165.095,34.496 C165.095,34.4 165.159,34.336 165.255,34.336 L165.895,34.336 C165.959,34.336 165.991,34.304 165.991,34.24 L165.991,32.08 C165.991,31.984 166.055,31.92 166.151,31.92 L167.175,31.92 C167.271,31.92 167.335,31.984 167.335,32.08 L167.335,34.24 C167.335,34.304 167.367,34.336 167.431,34.336 L168.647,34.336 C168.743,34.336 168.807,34.4 168.807,34.496 L168.807,35.264 C168.807,35.36 168.743,35.424 168.647,35.424 L167.431,35.424 C167.367,35.424 167.335,35.456 167.335,35.52 L167.335,39.856 C167.335,40.624 167.623,40.832 168.311,40.832 L168.647,40.832 C168.743,40.832 168.807,40.896 168.807,40.992 L168.807,41.92 C168.807,42.016 168.743,42.08 168.647,42.08 Z M176.502,42 L175.478,42 C175.382,42 175.318,41.936 175.318,41.84 L175.318,41.12 L175.302,41.12 C174.902,41.76 174.198,42.176 173.206,42.176 C171.526,42.176 170.55,41.024 170.55,39.28 L170.55,34.496 C170.55,34.4 170.614,34.336 170.71,34.336 L171.734,34.336 C171.83,34.336 171.894,34.4 171.894,34.496 L171.894,38.96 C171.894,40.208 172.454,40.928 173.59,40.928 C174.63,40.928 175.318,40.192 175.318,39.04 L175.318,34.496 C175.318,34.4 175.382,34.336 175.478,34.336 L176.502,34.336 C176.598,34.336 176.662,34.4 176.662,34.496 L176.662,41.84 C176.662,41.936 176.598,42 176.502,42 Z M183.86,42 L182.836,42 C182.74,42 182.676,41.936 182.676,41.84 L182.676,34.496 C182.676,34.4 182.74,34.336 182.836,34.336 L183.86,34.336 C183.956,34.336 184.02,34.4 184.02,34.496 L184.02,35.28 L184.036,35.28 C184.372,34.624 185.044,34.16 186.068,34.16 C186.676,34.16 187.252,34.384 187.636,34.736 C187.716,34.816 187.732,34.88 187.668,34.96 L187.076,35.744 C187.012,35.824 186.932,35.84 186.852,35.776 C186.5,35.552 186.116,35.408 185.668,35.408 C184.5,35.408 184.02,36.32 184.02,37.648 L184.02,41.84 C184.02,41.936 183.956,42 183.86,42 Z M191.587,42.176 C190.035,42.176 188.931,41.424 188.515,40.096 C188.355,39.6 188.259,39.04 188.259,38.16 C188.259,37.28 188.339,36.688 188.499,36.224 C188.931,34.896 190.051,34.16 191.507,34.16 C192.979,34.16 194.083,34.912 194.515,36.224 C194.675,36.72 194.755,37.248 194.755,38.416 C194.755,38.512 194.691,38.576 194.579,38.576 L189.731,38.576 C189.667,38.576 189.635,38.608 189.635,38.672 C189.635,39.088 189.683,39.344 189.763,39.6 C190.067,40.48 190.755,40.928 191.699,40.928 C192.611,40.928 193.251,40.56 193.667,40.08 C193.747,40 193.827,39.984 193.907,40.048 L194.563,40.64 C194.643,40.704 194.643,40.784 194.579,40.864 C193.971,41.632 192.931,42.176 191.587,42.176 Z M189.731,37.504 L193.283,37.504 C193.347,37.504 193.379,37.472 193.379,37.408 C193.379,37.056 193.347,36.784 193.267,36.544 C193.011,35.776 192.371,35.344 191.507,35.344 C190.643,35.344 190.003,35.776 189.747,36.544 C189.667,36.784 189.635,37.056 189.635,37.408 C189.635,37.472 189.667,37.504 189.731,37.504 Z M196.226,38.16 C196.226,37.312 196.322,36.688 196.466,36.224 C196.898,34.896 198.018,34.16 199.49,34.16 C200.658,34.16 201.554,34.656 202.114,35.456 C202.162,35.536 202.162,35.6 202.066,35.68 L201.362,36.256 C201.282,36.32 201.202,36.32 201.138,36.24 C200.69,35.68 200.258,35.408 199.49,35.408 C198.658,35.408 198.034,35.808 197.778,36.608 C197.65,37.008 197.602,37.488 197.602,38.16 C197.602,38.848 197.65,39.328 197.778,39.728 C198.034,40.528 198.658,40.928 199.49,40.928 C200.258,40.928 200.69,40.656 201.138,40.096 C201.202,40.016 201.282,40.016 201.362,40.08 L202.066,40.656 C202.162,40.736 202.162,40.8 202.114,40.88 C201.554,41.68 200.658,42.176 199.49,42.176 C198.018,42.176 196.898,41.44 196.466,40.112 C196.322,39.648 196.226,39.024 196.226,38.16 Z M209.409,42 L208.465,42 C208.369,42 208.305,41.936 208.305,41.84 L208.305,41.168 L208.289,41.168 C207.937,41.744 207.185,42.176 206.017,42.176 C204.561,42.176 203.441,41.424 203.441,39.872 C203.441,38.256 204.561,37.504 206.433,37.504 L208.177,37.504 C208.241,37.504 208.273,37.472 208.273,37.408 L208.273,36.848 C208.273,35.792 207.857,35.344 206.433,35.344 C205.569,35.344 205.025,35.568 204.577,35.888 C204.497,35.952 204.401,35.952 204.353,35.872 L203.921,35.136 C203.873,35.04 203.889,34.976 203.953,34.912 C204.529,34.464 205.425,34.16 206.561,34.16 C208.737,34.16 209.569,34.88 209.569,36.768 L209.569,41.84 C209.569,41.936 209.505,42 209.409,42 Z M206.337,41.024 C207.537,41.024 208.273,40.464 208.273,39.52 L208.273,38.672 C208.273,38.608 208.241,38.576 208.177,38.576 L206.641,38.576 C205.313,38.576 204.737,38.96 204.737,39.824 C204.737,40.608 205.313,41.024 206.337,41.024 Z M213.088,42 L212.064,42 C211.968,42 211.904,41.936 211.904,41.84 L211.904,34.496 C211.904,34.4 211.968,34.336 212.064,34.336 L213.088,34.336 C213.184,34.336 213.248,34.4 213.248,34.496 L213.248,35.28 L213.264,35.28 C213.6,34.624 214.272,34.16 215.296,34.16 C215.904,34.16 216.48,34.384 216.864,34.736 C216.944,34.816 216.96,34.88 216.896,34.96 L216.304,35.744 C216.24,35.824 216.16,35.84 216.08,35.776 C215.728,35.552 215.344,35.408 214.896,35.408 C213.728,35.408 213.248,36.32 213.248,37.648 L213.248,41.84 C213.248,41.936 213.184,42 213.088,42 Z M220.447,45.056 C219.375,45.056 218.303,44.592 217.791,43.92 C217.727,43.84 217.727,43.776 217.807,43.696 L218.463,43.04 C218.543,42.96 218.623,42.96 218.703,43.04 C219.231,43.52 219.775,43.808 220.511,43.808 C221.775,43.808 222.447,43.152 222.447,41.744 L222.447,40.848 L222.431,40.848 C222.079,41.488 221.423,41.904 220.303,41.904 C219.007,41.904 218.111,41.248 217.727,40.048 C217.535,39.472 217.471,38.912 217.471,38.032 C217.471,37.152 217.535,36.592 217.727,36.016 C218.111,34.816 219.007,34.16 220.303,34.16 C221.423,34.16 222.079,34.576 222.431,35.216 L222.447,35.216 L222.447,34.496 C222.447,34.4 222.511,34.336 222.607,34.336 L223.631,34.336 C223.727,34.336 223.791,34.4 223.791,34.496 L223.791,41.664 C223.791,43.84 222.607,45.056 220.447,45.056 Z M220.639,40.672 C221.439,40.672 221.999,40.304 222.271,39.52 C222.399,39.136 222.447,38.688 222.447,38.032 C222.447,37.376 222.399,36.944 222.271,36.544 C221.999,35.76 221.439,35.408 220.639,35.408 C219.807,35.408 219.279,35.808 219.023,36.544 C218.895,36.944 218.831,37.408 218.831,38.032 C218.831,38.656 218.895,39.136 219.023,39.52 C219.279,40.272 219.807,40.672 220.639,40.672 Z M231.774,42 L230.83,42 C230.734,42 230.67,41.936 230.67,41.84 L230.67,41.168 L230.654,41.168 C230.302,41.744 229.55,42.176 228.382,42.176 C226.926,42.176 225.806,41.424 225.806,39.872 C225.806,38.256 226.926,37.504 228.798,37.504 L230.542,37.504 C230.606,37.504 230.638,37.472 230.638,37.408 L230.638,36.848 C230.638,35.792 230.222,35.344 228.798,35.344 C227.934,35.344 227.39,35.568 226.942,35.888 C226.862,35.952 226.766,35.952 226.718,35.872 L226.286,35.136 C226.238,35.04 226.254,34.976 226.318,34.912 C226.894,34.464 227.79,34.16 228.926,34.16 C231.102,34.16 231.934,34.88 231.934,36.768 L231.934,41.84 C231.934,41.936 231.87,42 231.774,42 Z M228.702,41.024 C229.902,41.024 230.638,40.464 230.638,39.52 L230.638,38.672 C230.638,38.608 230.606,38.576 230.542,38.576 L229.006,38.576 C227.678,38.576 227.102,38.96 227.102,39.824 C227.102,40.608 227.678,41.024 228.702,41.024 Z" id="textos/H6" fill="#FFFFFF"></path>
        </g>
    </g>
</svg>