<svg xmlns="http://www.w3.org/2000/svg" width="75" height="50" viewBox="0 0 75 50">
    <path fill="#333" fill-rule="nonzero" d="M24.668 50c-.368 0-.735-.135-1.022-.406L.468 27.739a1.49 1.49 0 0 1 2.045-2.168L24.655 46.45 72.309.417a1.49 1.49 0 0 1 2.07 2.144l-48.676 47.02c-.288.279-.662.419-1.035.419z"/>
</svg>
