<svg xmlns="http://www.w3.org/2000/svg" width="18" height="18" viewBox="0 0 18 18">
    <path fill="#FFF" fill-rule="nonzero" stroke="#FFF" d="M16.37 2.658c.379-.38.38-.995.001-1.373a.969.969 0 0 0-1.373.001l-6.17 6.17-6.17-6.17a.971.971 0 0 0-1.373-.001.968.968 0 0 0 .001 1.373l6.17 6.169-6.17 6.17a.969.969 0 1 0 1.372 1.371l6.17-6.17 6.17 6.17c.38.379.994.38 1.373.001a.968.968 0 0 0-.001-1.373L10.2 8.827l6.17-6.17z"/>
</svg>
