<svg xmlns="http://www.w3.org/2000/svg" width="32" height="32" viewBox="0 0 32 32">
    <path fill="#FFF" fill-rule="nonzero" d="M26.795 25.475L25.307 8.71a.716.716 0 0 0-.712-.654h-3.061A5.14 5.14 0 0 0 16.4 3a5.14 5.14 0 0 0-5.134 5.056h-3.06a.713.713 0 0 0-.713.654L6.005 25.475c0 .021-.005.042-.005.064C6 27.447 7.748 29 9.9 29h13c2.152 0 3.9-1.553 3.9-3.461 0-.022 0-.043-.005-.064zM16.4 4.1a3.905 3.905 0 0 1 3.9 3.818h-7.8A3.905 3.905 0 0 1 16.4 4.1zm6.742 23.642H9.658c-1.4 0-2.536-.927-2.558-2.068L8.577 9h2.492v2.261c0 .414.33.745.744.745s.745-.331.745-.745V9h7.679v2.261c0 .414.33.745.744.745s.744-.331.744-.745V9h2.492L25.7 25.674c-.022 1.141-1.163 2.068-2.558 2.068z"/>
</svg>
