<svg xmlns="http://www.w3.org/2000/svg" xmlns:xlink="http://www.w3.org/1999/xlink" width="15" height="25" viewBox="0 0 15 25">
    <defs>
        <path id="a" d="M2.039 19.792V4.165h10.208v15.627H2.039zm5.104 4.45c-1 0-1.81-.827-1.81-1.848 0-1.017.81-1.843 1.81-1.843s1.81.826 1.81 1.843c0 1.021-.81 1.848-1.81 1.848zM11.736 0H2.55C1.147 0 0 1.174 0 2.606v19.788C0 23.826 1.147 25 2.55 25h9.186c1.403 0 2.55-1.174 2.55-2.606V2.606c0-1.432-1.147-2.606-2.55-2.606z"/>
    </defs>
    <g fill="none" fill-rule="evenodd">
        <mask id="b" fill="#fff">
            <use xlink:href="#a"/>
        </mask>
        <use fill="#FFFFFF" xlink:href="#a"/>
        <g fill="#FFFFFF" mask="url(#b)">
            <path d="M0-1h17v26H0z"/>
        </g>
    </g>
</svg>
